{
   "ar": "\u062d\u0644\u0642\u0629 \u0663 : \u0627\u0644\u0645\u0643\u0648\u0646\u0627\u062a\u064f \u0627\u0644\u0633\u0631\u064a\u0629",
   "bn": "\u0997\u09b2\u09cd\u09aa \u09e9: \u0997\u09cb\u09aa\u09a8 \u0989\u09aa\u0995\u09b0\u09a3",
   "br": "Rann 3: An aozenn gevrinus",
   "ca": "Episodi 3: Els ingredients secrets",
   "cn": "\u7b2c3\u96c6\uff1a\u79d8\u65b9",
   "cs": "3. d\u00edl: Tajn\u00e9 p\u0159\u00edsady",
   "da": "Episode 3: De hemmelige ingredienser",
   "de": "Episode 3: Die geheimen Zutaten",
   "el": "\u0395\u03c0\u03b5\u03b9\u03c3\u03cc\u03b4\u03b9\u03bf 3: \u03a4\u03b1 \u03bc\u03c5\u03c3\u03c4\u03b9\u03ba\u03ac \u03c3\u03c5\u03c3\u03c4\u03b1\u03c4\u03b9\u03ba\u03ac",
   "en": "Episode 3: The Secret Ingredients",
   "eo": "\u0108apitro 3a : La sekretaj Ingrediencoj",
   "es": "Episodio 3: Los ingredientes secretos",
   "fa": "\u0642\u0633\u0645\u062a \u0633\u0648\u0645: \u0645\u0648\u0627\u062f \u0627\u0648\u0644\u06cc\u0647 \u0645\u062d\u0631\u0645\u0627\u0646\u0647",
   "fi": "Episodi 3: Salaiset ainesosat",
   "fr": "\u00c9pisode 3 : L'ingr\u00e9dient secret",
   "gd": "Eapasod 3: Na cungaidhean r\u00f9nach",
   "go": "Eqerouey 3 : L'apigot segret",
   "hu": "3. r\u00e9sz: A titkos \u00f6sszetev\u0151k",
   "id": "Episode 3: Bahan rahasia",
   "ie": "Episode 3: Li Secret Ingredientes",
   "it": "Episodio 3: Gli ingredienti segreti",
   "ja": "\u30a8\u30d4\u30bd\u30fc\u30c9 3: \u79d8\u5bc6\u306e\u6750\u6599",
   "jb": "i 3 mo'o lisri le cizra se mixre",
   "kr": "\uc81c3 \ud654: \ube44\ubc00 \uc7ac\ub8cc",
   "kt": "Zixa 3 : Birgafa tadlexa",
   "kw": "Rann 3: An Devnydhyow Kevrinek",
   "la": "Episodium 3 : Arcana pars potionis",
   "mx": "Episodio 3 : Los Ingredientes Secretos",
   "nl": "Aflevering 3: De geheime ingredi\u00ebnten",
   "nm": "Histou\u00e8re 3 : L'ingr\u00e9dient manquiaunt",
   "nn": "Episode 3: Dei hemmelege ingrediensane",
   "no": "Episode 3: De hemmelige ingrediensene",
   "ns": "Folg 3: De gehemen Todaten",
   "ph": "Episode 3 : Ang sikretong sangkap",
   "pl": "Odcinek 3: Sekretny sk\u0142adnik",
   "pt": "Epis\u00f3dio 3: Os Ingredientes Secretos",
   "ro": "Episodul 3 : Ingredientele Secrete",
   "ru": "\u042d\u043f\u0438\u0437\u043e\u0434 3: \u0421\u0435\u043a\u0440\u0435\u0442\u043d\u044b\u0435 \u0438\u043d\u0433\u0440\u0435\u0434\u0438\u0435\u043d\u0442\u044b",
   "si": "3\u0dc0\u0db1 \u0d9a\u0dad\u0dcf\u0d82\u0d9c\u0dba: \u0dbb\u0dc4\u0dc3\u0dca \u0dc0\u0da7\u0dca\u0da7\u0ddd\u0dbb\u0dd4\u0dc0",
   "sk": "Epiz\u00f3da 3: Tajn\u00e9 ingrediencie",
   "sl": "Epizoda 3: Skrivne sestavine",
   "sr": "\u0415\u043f\u0438\u0437\u043e\u0434\u0430 3: \u0422\u0430\u0458\u043d\u0438 \u0441\u0430\u0441\u0442\u043e\u0458\u0446\u0438",
   "sv": "Episode 3: Den hemliga ingrediensen",
   "sz": "Tajla 3: Tajymne sk\u0142\u014fdniki",
   "tp": "lipu nanpa tu wan: wan mute pi sona nasa",
   "tr": "3. B\u00f6l\u00fcm : Gizli Bile\u015fenler",
   "uk": "\u0415\u043f\u0456\u0437\u043e\u0434 3: \u0421\u0435\u043a\u0440\u0435\u0442\u043d\u0456 \u0456\u043d\u0433\u0440\u0435\u0434\u0456\u0454\u043d\u0442\u0438",
   "vi": "T\u1eadp 3: Nguy\u00ean li\u1ec7u b\u00ed m\u1eadt"
}