<svg xmlns="http://www.w3.org/2000/svg" viewBox="0 0 120 80">
	<defs>
		<rect id="r" rx="2.2" width="32.2" height="32.2"/>
	</defs>
	<g fill="#818181" stroke="#7e7e7e">
		<use href="#r" x="44.2" y="5.152" fill-opacity=".1" stroke-opacity=".2"/>
		<use href="#r" x="44.2" y="41.65" fill-opacity=".1" stroke-opacity=".2"/>
		<use href="#r" x="8.119" y="41.65" fill-opacity=".1528" stroke-opacity=".7963"/>
		<use href="#r" x="80.339" y="41.65" fill-opacity=".1528" stroke-opacity=".7963"/>
	</g>
	<g>
		<path fill="#a0a0a0" fill-opacity=".2963" d="M63.29 59.58h-2.76v-8.15h-.46v8.15h-2.76l3.22 4.51z"/>
		<path fill="#a0a0a0" fill-opacity=".2963" d="M57.31 19.45h2.76v8.15h.46v-8.15h2.76l-3.22-4.52z"/>
		<path fill="#666" d="M98.5 54.7v2.71h-8.28v.6h8.28v2.81l4.6-3.08z"/>
		<path fill="#666" d="M22.39 60.82V58.1h8.29v-.59h-8.29V54.7l-4.6 3.08z"/>
	</g>
</svg>
